{
  "workflows": {
    "inside": {
      "oncomplete": {
        "url": "appFlow/activities/complete.html"
      },
      "steps": [
        {
          "id": "PersonalInfo",
          "title": "Personal Info",
          "url": "appFlow/activities/personalInformation.html"
        }
      ]
    },
    "outside": {
      "oncomplete": {
        "url": "appFlow/activities/done.html"
      },
      "steps": [
        {
          "id": "InsideWorkFlow",
          "title": "Inside",
          "url": "appFlow/activities/inside.html"
        },
        {
          "id": "Sidekick",
          "title": "Sidekick",
          "url": "appFlow/activities/sidekick.html"
        },
        {
          "id": "Amount",
          "title": "Amount",
          "url": "appFlow/activities/amount.html"
        }
      ]
    },
    "shortform": {
      "oncomplete": {
        "url": "appFlow/activities/redirect.html"
      },
      "steps": [
        {
          "id": "PersonalInfo",
          "title": "Personal Info",
          "url": "appFlow/activities/personalInformation.html"
        }
      ]
    },
    "fasttrack": {
      "oncomplete": {
        "url": "appFlow/activities/completedRedirect.html"
      },
      "steps": [
        {
          "id": "Amount",
          "title": "Loan Amount",
          "url": "appFlow/activities/amount.html"
        }
      ]
    },
    "slowtrack": {
      "oncomplete": {
        "url": "appFlow/activities/completedRedirect.html"
      },
      "steps": [
        {
          "id": "Sidekick",
          "title": "Sidekick",
          "url": "appFlow/activities/sidekick.html"
        },
        {
          "id": "Amount",
          "title": "Loan Amount",
          "url": "appFlow/activities/amount.html"
        }
      ]
    },
    "done": {
      "oncomplete": {
        "url": "appFlow/activities/completedRedirect.html"
      },
      "steps": [
        {
          "id": "Done",
          "title": "Done",
          "url": "appFlow/activities/done.html"
        }
      ]
    },
    "denied": {
      "oncomplete": {
        "url": "appFlow/activities/completedRedirect.html"
      },
      "steps": [
        {
          "id": "Denied",
          "title": "Denied",
          "url": "appFlow/activities/denied.html"
        }
      ]
    },
    "merchant-enrollment": {
      "oncomplete": {},
      "steps": [
        {
          "id": "merchant-enrollment",
          "title": "Merchant Enrollment",
          "url": "enrollment/merchant-enrollment.html"
        },
        {
          "id": "business-info",
          "title": "Business Info",
          "url": "enrollment/business-info.html"
        },
        {
          "id": "prefilled-info",
          "title": "Prefilled Info",
          "url": "enrollment/prefilled-info.html"
        },
        {
          "id": "bank-info",
          "title": "Bank Info",
          "url": "enrollment/bank-info.html"
        }
      ]
    }
  },
  "base": ""
}


