<?xml version="1.0" encoding="utf-8"?>
<!-- Generator: Adobe Illustrator 16.0.0, SVG Export Plug-In . SVG Version: 6.00 Build 0)  -->
<!DOCTYPE svg PUBLIC "-//W3C//DTD SVG 1.1//EN" "http://www.w3.org/Graphics/SVG/1.1/DTD/svg11.dtd">
<svg version="1.1" id="Layer_1" xmlns="http://www.w3.org/2000/svg" xmlns:xlink="http://www.w3.org/1999/xlink" x="0px" y="0px"
	 width="628.76px" height="103.643px" viewBox="0 0 628.76 103.643" enable-background="new 0 0 628.76 103.643"
	 xml:space="preserve">
<g>
	<path fill="#FFFFFF" d="M363.862,36.12h0.063H363.862z"/>
	<path fill="#FFFFFF" d="M363.649,60.088c0.143-0.222,0.394-0.431,0.522-0.678L363.649,60.088z"/>
	<path fill="#FFFFFF" d="M287.964,43.343c0.951,1.884,1.433,4.182,1.315,6.521c-0.061,2.407-0.61,4.701-1.546,6.596
		c-2.385,5.497-7.542,8.788-13.79,8.788c-11.019,0-15.315-9.404-15.384-15.45c0-8.865,6.516-15.568,15.245-15.568
		C280.327,34.23,285.621,37.621,287.964,43.343 M289.218,33.886c-2.482-4.046-8.002-8.364-16.501-8.364
		c-13.34,0-23.431,10.39-23.431,24.187c0,12.089,8.064,24.248,23.431,24.248c7.182,0,13.273-3.088,16.501-8.319v6.976h9.201v-45.77
		h-9.201V33.886z"/>
	<path fill="#FFFFFF" d="M355.877,25.523c-4.743,0-9.062,1.707-12.172,4.798c-1.427,1.457-2.34,2.909-3.033,4.069l-0.06-0.134
		c-0.572-1.048-1.639-2.845-2.553-3.796c-3.631-4.122-8.449-4.938-11.899-4.938c-6.247,0-11.114,3.348-13.39,6.813v-5.493h-8.724
		v45.766h9.225V47.59c0-3.766,0.824-6.797,2.401-9.068c1.579-2.635,4.578-4.267,8.242-4.267h0.039
		c3.746,0.063,6.474,1.493,8.245,4.384c1.392,2.198,1.861,4.771,1.803,8.749v25.22h9.334v-25.22c0-3.934,0.337-6.322,2.034-8.955
		c1.583-2.595,4.729-4.178,8.44-4.178c3.68,0,6.11,1.153,7.823,3.629c1.653,2.139,2.405,5.273,2.405,9.845v24.879h9.271v-25.22
		c0-9.092-1.211-13.294-5.065-17.25C364.313,26.115,358.812,25.523,355.877,25.523"/>
	<path fill="#FFFFFF" d="M401.554,33.504h0.343c7.902,0,13.655,6.104,14.271,11.95h-29.188
		C387.571,39.525,393.073,33.504,401.554,33.504 M401.554,25.523c-13.547,0-24.136,10.709-24.136,24.275
		c0,11.854,9.062,24.154,24.198,24.154c4.797,0,9.347-1.362,13.086-3.905c3.97-2.592,7.115-6.396,9.229-11.321l0.203-0.425h-9.628
		l-0.118,0.157c-2.499,4.796-7.065,7.455-12.771,7.455c-6.768,0-14.291-4.598-14.797-13.12h38.55l0.027-0.313
		c0.74-7.869-1.643-14.854-6.894-20.276C414.031,27.86,408.071,25.523,401.554,25.523"/>
	<path fill="#FFFFFF" d="M438.302,32.532v-5.688h-8.799V72.61h9.275V47.912c0-8.729,4.018-13.142,12.06-13.142h0.873V25.52h-0.336
		C445.414,25.599,440.927,27.996,438.302,32.532"/>
	<rect x="457.339" y="25.733" fill="#FFFFFF" width="9.229" height="9.77"/>
	<rect x="457.339" y="41.387" fill="#FFFFFF" width="9.229" height="31.222"/>
	<path fill="#FFFFFF" d="M602.249,25.523h-0.248c-6.704,0-11.976,2.66-14.727,7.35v-6.025h-8.771V72.61h9.249V47.153
		c0-8.239,4.319-12.763,12.251-12.896c7.605,0,11.442,4.537,11.442,13.544v24.81h9.37V45.842
		C620.82,38.324,618.41,25.703,602.249,25.523"/>
	<path fill="#FFFFFF" d="M562.151,56.46c-2.414,5.497-7.567,8.79-13.76,8.79c-11.129,0-15.377-9.407-15.447-15.451
		c0-8.865,6.596-15.569,15.271-15.569c6.505,0,11.795,3.396,14.163,9.115c0.956,1.954,1.363,4.181,1.289,6.521
		C563.604,52.276,563.033,54.569,562.151,56.46 M563.604,26.843v7.043c-2.503-4.044-7.993-8.363-16.45-8.363
		c-7.485,0-13.938,3.249-18.18,8.528l-0.021-0.028l-18.885,22.09l-2.821,3.301c-0.157,0.247-0.364,0.457-0.549,0.679
		c-2.406,2.82-6.199,5.137-11.498,5.161c-8.641,0-15.13-6.685-15.13-15.545c0-4.273,1.61-8.521,4.286-11.186
		c3.17-2.974,6.438-4.342,10.506-4.342l0.338,0.048c6.313,0,11.644,3.479,13.771,9.229l0.13,0.208h0.055l6.25-7.348
		c-4.313-6.657-11.894-10.797-20.543-10.797c-13.523,0-24.057,10.637-24.057,24.185c0,11.771,8.602,24.249,24.461,24.249
		c6.07,0,11.639-2.111,15.891-5.822v-0.016c1.106-0.957,2.141-1.979,3.042-3.161l8.158-9.34l1.638-1.842
		c1.6,10.604,9.46,20.181,23.157,20.181c7.151,0,13.198-3.089,16.453-8.318v6.975h9.274V26.843H563.604z"/>
	<path fill="#FFFFFF" d="M117.541,26.275h-0.275c-6.54,0-11.748,2.614-14.451,7.231v-5.908H94.18v45.086h9.11V47.588
		c0-8.108,4.229-12.582,12.086-12.694c7.506,0,11.277,4.494,11.277,13.376v24.414h9.225V46.3
		C135.877,38.909,133.497,26.431,117.541,26.275"/>
	<path fill="#FFFFFF" d="M163.21,34.162h0.291c7.793,0,13.478,5.993,14.069,11.702h-28.726
		C149.386,40.065,154.848,34.162,163.21,34.162 M163.21,26.253c-13.343,0-23.773,10.521-23.773,23.928
		c0,11.688,8.932,23.771,23.835,23.771c4.685,0,9.166-1.348,12.87-3.818c3.927-2.544,7.021-6.342,9.113-11.152l0.18-0.414h-9.527
		l-0.038,0.141c-2.552,4.751-6.962,7.356-12.598,7.356c-6.726,0-14.06-4.517-14.607-12.927h37.973l0.021-0.324
		c0.75-7.72-1.542-14.69-6.813-19.926C175.502,28.598,169.592,26.253,163.21,26.253"/>
	<polygon fill="#FFFFFF" points="184.169,27.597 193.06,27.597 203.426,53.5 218.018,26.275 218.465,26.275 232.484,53.68 
		242.829,27.597 251.736,27.597 234.172,72.449 233.598,72.449 218.141,41.797 202.397,72.449 201.836,72.449 	"/>
	<path fill="#FFFFFF" d="M60.066,27.076l-7.495,1.633L35.793,0L32.49,33.09L0,40.171l25.609,11.245l4.839,2.121l0.065-0.017
		C39.672,47.62,50.657,38.321,60.066,27.076"/>
	<path fill="#FFFFFF" d="M65.499,25.887C51.454,47.932,28.692,66.333,28.692,66.333L27.147,86.63l22.12-24.828l30.45,13.367
		L62.939,46.457L85.044,21.65c0-0.002,0.002-0.002,0.007-0.002l0.008-0.021L65.499,25.887z"/>
	<polygon fill="#FFFFFF" points="401.624,90.017 401.624,95.049 409.125,95.049 409.125,96.272 401.624,96.272 401.624,103.643 
		400.258,103.643 400.258,88.772 409.991,88.772 409.991,90.017 	"/>
	<path fill="#FFFFFF" d="M445.269,98.611c-0.043,1.367-0.229,2.651-1.155,3.745c-0.671,0.78-1.938,1.667-4.319,1.667
		c-0.545,0-2.358-0.021-3.809-1.154c-0.216-0.175-0.698-0.595-1.074-1.229c-0.78-1.366-0.717-2.884-0.717-5.979V88.77h1.391v9.647
		c0,0.801,0.063,1.685,0.443,2.442c0.38,0.775,1.007,1.138,1.28,1.281c0.777,0.421,1.6,0.57,2.458,0.57c0.384,0,2.238,0,3.291-1.242
		c0.839-1.012,0.839-2.34,0.839-3.54v-9.16h1.411v6.764C445.308,96.565,445.308,97.577,445.269,98.611"/>
	<polygon fill="#FFFFFF" points="480.926,103.643 472.207,90.796 472.207,103.643 470.819,103.643 470.819,88.772 472.207,88.772 
		481.031,101.494 480.926,88.772 482.316,88.772 482.316,103.643 	"/>
	<path fill="#FFFFFF" d="M516.669,91.468c-0.188-0.23-0.717-0.82-1.521-1.113c-0.818-0.294-1.579-0.294-3.268-0.294h-2.606v12.318
		h2.229c1.96,0,3.159-0.082,3.959-0.462c0.818-0.382,1.352-1.136,1.496-1.37c0.51-0.717,1.181-2.148,1.181-4.339
		C518.144,95.641,518.1,93.175,516.669,91.468 M517.614,101.895c-0.231,0.252-0.927,0.974-1.912,1.352
		c-0.996,0.38-1.941,0.396-3.985,0.396h-3.876V88.771h3.985c0.521,0,1.03,0,1.556,0.021c1.708,0.062,2.95,0.295,4.193,1.623
		c0.842,0.884,1.998,2.736,1.998,5.754C519.573,96.965,519.491,99.83,517.614,101.895"/>
	<rect x="544.449" y="88.771" fill="#FFFFFF" width="1.411" height="14.872"/>
	<polygon fill="#FFFFFF" points="581.494,103.643 572.779,90.796 572.779,103.643 571.388,103.643 571.388,88.772 572.779,88.772 
		581.601,101.494 581.494,88.772 582.886,88.772 582.886,103.643 	"/>
	<path fill="#FFFFFF" d="M614.256,95.576v1.351h4.312v4.295c-1.188,0.896-2.442,1.463-3.951,1.463c-3.378,0-6.168-2.983-6.168-6.586
		c0-3.444,2.657-6.367,6.369-6.367c1.411,0,2.895,0.829,4.012,1.657l0.827-1.048c-1.156-1.135-3.249-1.962-4.863-1.962
		c-4.82,0-7.826,3.71-7.826,7.721c0,4.625,3.397,7.938,7.521,7.938c1.873,0,3.728-0.725,5.432-2.031v-6.429h-5.661L614.256,95.576
		L614.256,95.576z"/>
	<path fill="#FFFFFF" d="M628.76,23.625c0-2.795-2.354-5.107-5.188-5.107c-2.916,0-5.229,2.313-5.229,5.21
		c0,2.899,2.313,5.21,5.195,5.21C626.521,28.938,628.76,26.657,628.76,23.625L628.76,23.625z M628.234,23.83
		c0,2.504-2.14,4.608-4.687,4.608c-2.604,0-4.672-2.079-4.672-4.695c0-2.621,2.081-4.729,4.672-4.729
		C626.216,19.014,628.234,21.093,628.234,23.83L628.234,23.83z M625.832,27.022l-1.489-2.854c0.964-0.268,1.403-0.835,1.403-1.845
		c0-1.318-0.717-1.891-2.323-1.891h-1.905v6.586h1.011v-2.767h0.792l1.391,2.767L625.832,27.022L625.832,27.022z M624.724,22.337
		c0,0.717-0.411,1.021-1.349,1.021h-0.834v-2.032h0.732C624.3,21.326,624.724,21.62,624.724,22.337L624.724,22.337z"/>
</g>
</svg>
